Pistachio GDD Nut Development Model
…
## [1] 7

curseason_all_tbl <- curseasn_hist_tbl %>% 
  bind_rows(curseasn_forecst_tbl) %>% 
  mutate(date = as.Date(date),
         avgtempC = as.numeric(avgtempC))

curseason_tu_tbl <- curseason_all_tbl %>% 
  mutate(tu = pmax(0, avgtempC - base_temp_int)) %>% 
  mutate(tu_csum = cumsum(tu))

curseason_tu_tbl

## # A tibble: 68 x 4
##    date       avgtempC    tu tu_csum
##    <date>        <dbl> <dbl>   <dbl>
##  1 2021-03-15        7     0       0
##  2 2021-03-16        8     1       1
##  3 2021-03-17       11     4       5
##  4 2021-03-18       14     7      12
##  5 2021-03-19       12     5      17
##  6 2021-03-20       10     3      20
##  7 2021-03-21       11     4      24
##  8 2021-03-22       12     5      29
##  9 2021-03-23       12     5      34
## 10 2021-03-24       12     5      39
## # ... with 58 more rows
…
